{"failedCount":0,"prefixedPath":"classpath:examples\/users\/prueba.feature","packageQualifiedName":"examples.users.prueba","loopIndex":-1,"relativePath":"examples\/users\/prueba.feature","scenarioResults":[{"sectionIndex":0,"stepResults":[{"result":{"nanos":1283400,"startTime":1730879503680,"endTime":1730879503681,"millis":1.2834,"status":"passed"},"step":{"background":true,"line":4,"prefix":"*","index":0,"text":"url 'https:\/\/reqres.in'"},"stepLog":"02:51:43.654 karate.env system property was: null \n"},{"result":{"nanos":424900,"startTime":1730879503683,"endTime":1730879503683,"millis":0.4249,"status":"passed"},"step":{"line":8,"prefix":"Given","index":0,"text":"path '\/api\/users?page=2'"}},{"result":{"nanos":563796200,"startTime":1730879503684,"endTime":1730879504248,"millis":563.7962,"status":"passed"},"step":{"line":9,"prefix":"When","index":1,"text":"method GET"},"stepLog":"02:51:43.862 request:\n1 > GET https:\/\/reqres.in\/api\/users%3Fpage=2\n1 > Host: reqres.in\n1 > Connection: Keep-Alive\n1 > User-Agent: Apache-HttpClient\/4.5.14 (Java\/20)\n1 > Accept-Encoding: gzip,deflate\n\n\n02:51:44.246 response time in milliseconds: 380\n1 < 200\n1 < Date: Wed, 06 Nov 2024 07:51:44 GMT\n1 < Content-Type: application\/json; charset=utf-8\n1 < Transfer-Encoding: chunked\n1 < Connection: keep-alive\n1 < Report-To: {\"group\":\"heroku-nel\",\"max_age\":3600,\"endpoints\":[{\"url\":\"https:\/\/nel.heroku.com\/reports?ts=1730878378&sid=c4c9725f-1ab0-44d8-820f-430df2718e11&s=zHTXCKPEy5ih8ud9nkoHKSoociuegMUfcLhCBbcK1zM%3D\"}]}\n1 < Reporting-Endpoints: heroku-nel=https:\/\/nel.heroku.com\/reports?ts=1730878378&sid=c4c9725f-1ab0-44d8-820f-430df2718e11&s=zHTXCKPEy5ih8ud9nkoHKSoociuegMUfcLhCBbcK1zM%3D\n1 < Nel: {\"report_to\":\"heroku-nel\",\"max_age\":3600,\"success_fraction\":0.005,\"failure_fraction\":0.05,\"response_headers\":[\"Via\"]}\n1 < X-Powered-By: Express\n1 < Access-Control-Allow-Origin: *\n1 < Etag: W\/\"2c1-N6Rqerxquq2kgQhL51EiSg4x0R8\"\n1 < Via: 1.1 vegur\n1 < Cache-Control: max-age=14400\n1 < CF-Cache-Status: HIT\n1 < Age: 1125\n1 < Vary: Accept-Encoding\n1 < Server: cloudflare\n1 < CF-RAY: 8de380069e4aa79b-EZE\n1 < server-timing: cfL4;desc=\"?proto=TCP&rtt=53162&sent=7&recv=7&lost=0&retrans=0&sent_bytes=3111&recv_bytes=736&delivery_rate=65231&cwnd=252&unsent_bytes=0&cid=b933d6f4fd25e44c&ts=142&x=0\"\n{\"page\":1,\"per_page\":6,\"total\":12,\"total_pages\":2,\"data\":[{\"id\":1,\"name\":\"cerulean\",\"year\":2000,\"color\":\"#98B2D1\",\"pantone_value\":\"15-4020\"},{\"id\":2,\"name\":\"fuchsia rose\",\"year\":2001,\"color\":\"#C74375\",\"pantone_value\":\"17-2031\"},{\"id\":3,\"name\":\"true red\",\"year\":2002,\"color\":\"#BF1932\",\"pantone_value\":\"19-1664\"},{\"id\":4,\"name\":\"aqua sky\",\"year\":2003,\"color\":\"#7BC4C4\",\"pantone_value\":\"14-4811\"},{\"id\":5,\"name\":\"tigerlily\",\"year\":2004,\"color\":\"#E2583E\",\"pantone_value\":\"17-1456\"},{\"id\":6,\"name\":\"blue turquoise\",\"year\":2005,\"color\":\"#53B0AE\",\"pantone_value\":\"15-5217\"}],\"support\":{\"url\":\"https:\/\/reqres.in\/#support-heading\",\"text\":\"To keep ReqRes free, contributions towards server costs are appreciated!\"}}\n\n"},{"result":{"nanos":2400400,"startTime":1730879504248,"endTime":1730879504250,"millis":2.4004,"status":"passed"},"step":{"line":10,"prefix":"Then","index":2,"text":"status 200"}}],"executorName":"pool-2-thread-1","line":6,"name":"Get all users:","description":"","durationMillis":567.9049,"startTime":1730879503503,"failed":false,"refId":"[1:6]","endTime":1730879504250,"exampleIndex":-1},{"sectionIndex":1,"stepResults":[{"result":{"nanos":1292200,"startTime":1730879503680,"endTime":1730879503681,"millis":1.2922,"status":"passed"},"step":{"background":true,"line":4,"prefix":"*","index":0,"text":"url 'https:\/\/reqres.in'"},"stepLog":"02:51:43.654 karate.env system property was: null \n"},{"result":{"nanos":37403500,"startTime":1730879503683,"endTime":1730879503720,"millis":37.4035,"status":"passed"},"step":{"endLine":19,"line":13,"prefix":"*","docString":"{\n \"name\": \"morpheus\",\n \"job\": \"leader\"\n}","index":0,"text":"def create_user_request ="}},{"result":{"nanos":460400,"startTime":1730879503721,"endTime":1730879503721,"millis":0.4604,"status":"passed"},"step":{"line":20,"prefix":"Given","index":1,"text":"path '\/api\/users'"}},{"result":{"nanos":3588100,"startTime":1730879503721,"endTime":1730879503725,"millis":3.5881,"status":"passed"},"step":{"line":21,"prefix":"And","index":2,"text":"request create_user_request"}},{"result":{"nanos":1032954800,"startTime":1730879503725,"endTime":1730879504758,"millis":1032.9548,"status":"passed"},"step":{"line":22,"prefix":"When","index":3,"text":"method POST"},"stepLog":"02:51:43.862 request:\n1 > POST https:\/\/reqres.in\/api\/users\n1 > Content-Type: application\/json; charset=UTF-8\n1 > Content-Length: 34\n1 > Host: reqres.in\n1 > Connection: Keep-Alive\n1 > User-Agent: Apache-HttpClient\/4.5.14 (Java\/20)\n1 > Accept-Encoding: gzip,deflate\n{\"name\":\"morpheus\",\"job\":\"leader\"}\n\n02:51:44.757 response time in milliseconds: 894\n1 < 201\n1 < Date: Wed, 06 Nov 2024 07:51:44 GMT\n1 < Content-Type: application\/json; charset=utf-8\n1 < Content-Length: 84\n1 < Connection: keep-alive\n1 < Report-To: {\"group\":\"heroku-nel\",\"max_age\":3600,\"endpoints\":[{\"url\":\"https:\/\/nel.heroku.com\/reports?ts=1730879504&sid=c4c9725f-1ab0-44d8-820f-430df2718e11&s=O8KCF4N5pUMBejkYaxruYPZTlSfceh%2Fd%2B%2BHQcPE%2FvyU%3D\"}]}\n1 < Reporting-Endpoints: heroku-nel=https:\/\/nel.heroku.com\/reports?ts=1730879504&sid=c4c9725f-1ab0-44d8-820f-430df2718e11&s=O8KCF4N5pUMBejkYaxruYPZTlSfceh%2Fd%2B%2BHQcPE%2FvyU%3D\n1 < Nel: {\"report_to\":\"heroku-nel\",\"max_age\":3600,\"success_fraction\":0.005,\"failure_fraction\":0.05,\"response_headers\":[\"Via\"]}\n1 < X-Powered-By: Express\n1 < Access-Control-Allow-Origin: *\n1 < Etag: W\/\"54-MPfMj1ea2mGFzbLTy8Og2tTvQuw\"\n1 < Via: 1.1 vegur\n1 < cf-cache-status: DYNAMIC\n1 < Server: cloudflare\n1 < CF-RAY: 8de380069a4d200d-EZE\n1 < server-timing: cfL4;desc=\"?proto=TCP&rtt=54043&sent=7&recv=7&lost=0&retrans=0&sent_bytes=3110&recv_bytes=829&delivery_rate=65780&cwnd=252&unsent_bytes=0&cid=21f919af7e761da3&ts=661&x=0\"\n{\"name\":\"morpheus\",\"job\":\"leader\",\"id\":\"123\",\"createdAt\":\"2024-11-06T07:51:44.840Z\"}\n\n"},{"result":{"nanos":9600,"startTime":1730879504758,"endTime":1730879504758,"millis":0.0096,"status":"passed"},"step":{"line":23,"prefix":"Then","index":4,"text":"status 201"}},{"result":{"nanos":700800,"startTime":1730879504758,"endTime":1730879504759,"millis":0.7008,"status":"passed"},"step":{"line":25,"prefix":"*","index":5,"text":"def expectedName = create_user_request.name"}},{"result":{"nanos":406500,"startTime":1730879504759,"endTime":1730879504759,"millis":0.4065,"status":"passed"},"step":{"line":26,"prefix":"*","index":6,"text":"def expectedJob = create_user_request.job"}},{"result":{"nanos":9160200,"startTime":1730879504759,"endTime":1730879504768,"millis":9.1602,"status":"passed"},"step":{"line":28,"prefix":"And","index":7,"text":"match response.name == expectedName"}},{"result":{"nanos":443900,"startTime":1730879504768,"endTime":1730879504768,"millis":0.4439,"status":"passed"},"step":{"line":29,"prefix":"And","index":8,"text":"match response.job == expectedJob"}}],"executorName":"pool-2-thread-2","line":12,"name":"Create a user:","description":"","durationMillis":1086.42,"startTime":1730879503503,"failed":false,"refId":"[2:12]","endTime":1730879504769,"exampleIndex":-1}],"callDepth":0,"name":"Prueba","description":"","resultDate":"2024-11-06 02:51:44 a. m.","durationMillis":1654.3249,"passedCount":2}